{
  "kind": "Pod",
  "spec": {
    "volumes": [
      {
        "name": "prometheus-adhoc-vm-prometheus-db",
        "persistentVolumeClaim": {
          "claimName": "prometheus-adhoc-vm-prometheus-db-prometheus-adhoc-vm-prometheus-0"
        }
      },
      {
        "name": "config",
        "secret": {
          "secretName": "prometheus-adhoc-vm-prometheus",
          "defaultMode": 420
        }
      },
      {
        "name": "tls-assets",
        "projected": {
          "sources": [
            {
              "secret": {
                "name": "prometheus-adhoc-vm-prometheus-tls-assets-0"
              }
            }
          ],
          "defaultMode": 420
        }
      },
      { "name": "config-out", "emptyDir": {} },
      {
        "name": "prometheus-adhoc-vm-prometheus-rulefiles-0",
        "configMap": {
          "name": "prometheus-adhoc-vm-prometheus-rulefiles-0",
          "defaultMode": 420
        }
      },
      {
        "name": "web-config",
        "secret": {
          "secretName": "prometheus-adhoc-vm-prometheus-web-config",
          "defaultMode": 420
        }
      },
      {
        "name": "kube-api-access-67pjm",
        "projected": {
          "sources": [
            {
              "serviceAccountToken": {
                "path": "token",
                "expirationSeconds": 3607
              }
            },
            {
              "configMap": {
                "name": "kube-root-ca.crt",
                "items": [{ "key": "ca.crt", "path": "ca.crt" }]
              }
            },
            {
              "downwardAPI": {
                "items": [
                  {
                    "path": "namespace",
                    "fieldRef": {
                      "fieldPath": "metadata.namespace",
                      "apiVersion": "v1"
                    }
                  }
                ]
              }
            }
          ],
          "defaultMode": 420
        }
      }
    ],
    "hostname": "prometheus-adhoc-vm-prometheus-0",
    "nodeName": "pagoda-rke2-w-colossal-001",
    "priority": 0,
    "dnsPolicy": "ClusterFirst",
    "subdomain": "prometheus-operated",
    "containers": [
      {
        "args": [
          "--web.console.templates=/etc/prometheus/consoles",
          "--web.console.libraries=/etc/prometheus/console_libraries",
          "--storage.tsdb.retention.time=1y",
          "--config.file=/etc/prometheus/config_out/prometheus.env.yaml",
          "--storage.tsdb.path=/prometheus",
          "--web.enable-lifecycle",
          "--web.route-prefix=/",
          "--web.config.file=/etc/prometheus/web_config/web-config.yaml"
        ],
        "name": "prometheus",
        "image": "quay.io/prometheus/prometheus",
        "ports": [{ "name": "web", "protocol": "TCP", "containerPort": 9090 }],
        "resources": { "requests": { "cpu": "500m", "memory": "500Mi" } },
        "startupProbe": {
          "httpGet": { "path": "/-/ready", "port": "web", "scheme": "HTTP" },
          "periodSeconds": 15,
          "timeoutSeconds": 3,
          "failureThreshold": 60,
          "successThreshold": 1
        },
        "volumeMounts": [
          {
            "name": "config-out",
            "readOnly": true,
            "mountPath": "/etc/prometheus/config_out"
          },
          {
            "name": "tls-assets",
            "readOnly": true,
            "mountPath": "/etc/prometheus/certs"
          },
          {
            "name": "prometheus-adhoc-vm-prometheus-db",
            "subPath": "prometheus-db",
            "mountPath": "/prometheus"
          },
          {
            "name": "prometheus-adhoc-vm-prometheus-rulefiles-0",
            "mountPath": "/etc/prometheus/rules/prometheus-adhoc-vm-prometheus-rulefiles-0"
          },
          {
            "name": "web-config",
            "subPath": "web-config.yaml",
            "readOnly": true,
            "mountPath": "/etc/prometheus/web_config/web-config.yaml"
          },
          {
            "name": "kube-api-access-67pjm",
            "readOnly": true,
            "mountPath": "/var/run/secrets/kubernetes.io/serviceaccount"
          }
        ],
        "livenessProbe": {
          "httpGet": { "path": "/-/healthy", "port": "web", "scheme": "HTTP" },
          "periodSeconds": 5,
          "timeoutSeconds": 3,
          "failureThreshold": 6,
          "successThreshold": 1
        },
        "readinessProbe": {
          "httpGet": { "path": "/-/ready", "port": "web", "scheme": "HTTP" },
          "periodSeconds": 5,
          "timeoutSeconds": 3,
          "failureThreshold": 3,
          "successThreshold": 1
        },
        "imagePullPolicy": "Always",
        "securityContext": {
          "capabilities": { "drop": ["ALL"] },
          "readOnlyRootFilesystem": true,
          "allowPrivilegeEscalation": false
        },
        "terminationMessagePath": "/dev/termination-log",
        "terminationMessagePolicy": "FallbackToLogsOnError"
      },
      {
        "env": [
          {
            "name": "POD_NAME",
            "valueFrom": {
              "fieldRef": { "fieldPath": "metadata.name", "apiVersion": "v1" }
            }
          },
          { "name": "SHARD", "value": "0" }
        ],
        "args": [
          "--listen-address=:8080",
          "--reload-url=http://127.0.0.1:9090/-/reload",
          "--config-file=/etc/prometheus/config/prometheus.yaml.gz",
          "--config-envsubst-file=/etc/prometheus/config_out/prometheus.env.yaml",
          "--watched-dir=/etc/prometheus/rules/prometheus-adhoc-vm-prometheus-rulefiles-0"
        ],
        "name": "config-reloader",
        "image": "quay.io/prometheus-operator/prometheus-config-reloader:v0.57.0",
        "ports": [
          { "name": "reloader-web", "protocol": "TCP", "containerPort": 8080 }
        ],
        "command": ["/bin/prometheus-config-reloader"],
        "resources": {
          "limits": { "cpu": "200m", "memory": "50Mi" },
          "requests": { "cpu": "200m", "memory": "50Mi" }
        },
        "volumeMounts": [
          { "name": "config", "mountPath": "/etc/prometheus/config" },
          { "name": "config-out", "mountPath": "/etc/prometheus/config_out" },
          {
            "name": "prometheus-adhoc-vm-prometheus-rulefiles-0",
            "mountPath": "/etc/prometheus/rules/prometheus-adhoc-vm-prometheus-rulefiles-0"
          },
          {
            "name": "kube-api-access-67pjm",
            "readOnly": true,
            "mountPath": "/var/run/secrets/kubernetes.io/serviceaccount"
          }
        ],
        "imagePullPolicy": "IfNotPresent",
        "securityContext": {
          "capabilities": { "drop": ["ALL"] },
          "readOnlyRootFilesystem": true,
          "allowPrivilegeEscalation": false
        },
        "terminationMessagePath": "/dev/termination-log",
        "terminationMessagePolicy": "FallbackToLogsOnError"
      }
    ],
    "tolerations": [
      {
        "key": "node.kubernetes.io/not-ready",
        "effect": "NoExecute",
        "operator": "Exists",
        "tolerationSeconds": 300
      },
      {
        "key": "node.kubernetes.io/unreachable",
        "effect": "NoExecute",
        "operator": "Exists",
        "tolerationSeconds": 300
      }
    ],
    "restartPolicy": "Always",
    "schedulerName": "default-scheduler",
    "initContainers": [
      {
        "env": [
          {
            "name": "POD_NAME",
            "valueFrom": {
              "fieldRef": { "fieldPath": "metadata.name", "apiVersion": "v1" }
            }
          },
          { "name": "SHARD", "value": "0" }
        ],
        "args": [
          "--watch-interval=0",
          "--listen-address=:8080",
          "--config-file=/etc/prometheus/config/prometheus.yaml.gz",
          "--config-envsubst-file=/etc/prometheus/config_out/prometheus.env.yaml",
          "--watched-dir=/etc/prometheus/rules/prometheus-adhoc-vm-prometheus-rulefiles-0"
        ],
        "name": "init-config-reloader",
        "image": "quay.io/prometheus-operator/prometheus-config-reloader:v0.57.0",
        "ports": [
          { "name": "reloader-web", "protocol": "TCP", "containerPort": 8080 }
        ],
        "command": ["/bin/prometheus-config-reloader"],
        "resources": {
          "limits": { "cpu": "200m", "memory": "50Mi" },
          "requests": { "cpu": "200m", "memory": "50Mi" }
        },
        "volumeMounts": [
          { "name": "config", "mountPath": "/etc/prometheus/config" },
          { "name": "config-out", "mountPath": "/etc/prometheus/config_out" },
          {
            "name": "prometheus-adhoc-vm-prometheus-rulefiles-0",
            "mountPath": "/etc/prometheus/rules/prometheus-adhoc-vm-prometheus-rulefiles-0"
          },
          {
            "name": "kube-api-access-67pjm",
            "readOnly": true,
            "mountPath": "/var/run/secrets/kubernetes.io/serviceaccount"
          }
        ],
        "imagePullPolicy": "IfNotPresent",
        "securityContext": {
          "capabilities": { "drop": ["ALL"] },
          "readOnlyRootFilesystem": true,
          "allowPrivilegeEscalation": false
        },
        "terminationMessagePath": "/dev/termination-log",
        "terminationMessagePolicy": "FallbackToLogsOnError"
      }
    ],
    "serviceAccount": "prometheus",
    "securityContext": { "fsGroup": 65534 },
    "preemptionPolicy": "PreemptLowerPriority",
    "enableServiceLinks": true,
    "serviceAccountName": "prometheus",
    "automountServiceAccountToken": true,
    "terminationGracePeriodSeconds": 600
  },
  "status": {
    "phase": "Running",
    "podIP": "10.42.2.158",
    "hostIP": "10.245.3.0",
    "podIPs": [{ "ip": "10.42.2.158" }],
    "qosClass": "Burstable",
    "startTime": "2022-08-25T09:09:06Z",
    "conditions": [
      {
        "type": "Initialized",
        "status": "True",
        "lastProbeTime": null,
        "lastTransitionTime": "2022-08-25T09:09:18Z"
      },
      {
        "type": "Ready",
        "status": "True",
        "lastProbeTime": null,
        "lastTransitionTime": "2022-08-25T09:09:22Z"
      },
      {
        "type": "ContainersReady",
        "status": "True",
        "lastProbeTime": null,
        "lastTransitionTime": "2022-08-25T09:09:22Z"
      },
      {
        "type": "PodScheduled",
        "status": "True",
        "lastProbeTime": null,
        "lastTransitionTime": "2022-08-25T09:09:06Z"
      }
    ],
    "containerStatuses": [
      {
        "name": "config-reloader",
        "image": "quay.io/prometheus-operator/prometheus-config-reloader:v0.57.0",
        "ready": true,
        "state": { "running": { "startedAt": "2022-08-25T09:09:19Z" } },
        "imageID": "quay.io/prometheus-operator/prometheus-config-reloader@sha256:8c45787645d17c51acb44aa0386af3aa5d8bfd7bddd8d57dd041878b9494c5ff",
        "started": true,
        "lastState": {},
        "containerID": "containerd://52a40840f6e6563f53b200e64ae5845729005b8c1606b8e571ebb36f52e05f31",
        "restartCount": 0
      },
      {
        "name": "prometheus",
        "image": "quay.io/prometheus/prometheus:latest",
        "ready": true,
        "state": { "running": { "startedAt": "2022-08-25T09:09:19Z" } },
        "imageID": "quay.io/prometheus/prometheus@sha256:aa1687dd552ed98df598cc0fed2effbc62a0f05236bc2253c65520ddd4f2afce",
        "started": true,
        "lastState": {},
        "containerID": "containerd://84a011bc73da7412cb0bbeb31f263f79801e5bd256570985159929c32853665b",
        "restartCount": 0
      }
    ],
    "initContainerStatuses": [
      {
        "name": "init-config-reloader",
        "image": "quay.io/prometheus-operator/prometheus-config-reloader:v0.57.0",
        "ready": true,
        "state": {
          "terminated": {
            "reason": "Completed",
            "exitCode": 0,
            "startedAt": "2022-08-25T09:09:17Z",
            "finishedAt": "2022-08-25T09:09:17Z",
            "containerID": "containerd://b680f36f713de50147e0343e77505c0756a1f2df3b26e3174a72506dd3952634"
          }
        },
        "imageID": "quay.io/prometheus-operator/prometheus-config-reloader@sha256:8c45787645d17c51acb44aa0386af3aa5d8bfd7bddd8d57dd041878b9494c5ff",
        "lastState": {},
        "containerID": "containerd://b680f36f713de50147e0343e77505c0756a1f2df3b26e3174a72506dd3952634",
        "restartCount": 0
      }
    ]
  },
  "metadata": {
    "uid": "45c71a9d-55aa-482f-9fb2-b12931b272d9",
    "name": "prometheus-adhoc-vm-prometheus-0",
    "labels": {
      "prometheus": "adhoc-vm-prometheus",
      "app.kubernetes.io/name": "prometheus",
      "controller-revision-hash": "prometheus-adhoc-vm-prometheus-7bb5c96b7b",
      "app.kubernetes.io/version": "2.36.0",
      "app.kubernetes.io/instance": "adhoc-vm-prometheus",
      "operator.prometheus.io/name": "adhoc-vm-prometheus",
      "app.kubernetes.io/managed-by": "prometheus-operator",
      "operator.prometheus.io/shard": "0",
      "statefulset.kubernetes.io/pod-name": "prometheus-adhoc-vm-prometheus-0"
    },
    "namespace": "adhoc-vm-monitoring",
    "annotations": {
      "kubernetes.io/psp": "global-unrestricted-psp",
      "cni.projectcalico.org/podIP": "10.42.2.158/32",
      "cni.projectcalico.org/podIPs": "10.42.2.158/32",
      "cni.projectcalico.org/containerID": "ebb36eac986e318fc64eb9a212f19536bfe59158a7a0f95b8c297da6f8189f40",
      "kubectl.kubernetes.io/default-container": "prometheus"
    },
    "generateName": "prometheus-adhoc-vm-prometheus-",
    "ownerReferences": [
      {
        "uid": "2600fe56-8ad9-41bf-805f-139427d4e85a",
        "kind": "StatefulSet",
        "name": "prometheus-adhoc-vm-prometheus",
        "apiVersion": "apps/v1",
        "controller": true,
        "blockOwnerDeletion": true
      }
    ],
    "resourceVersion": "51735802",
    "creationTimestamp": "2022-08-25T09:09:06Z"
  },
  "apiVersion": "v1"
}
