[
  {
    "nom": "AC/DC",
    "albums": [
      {
        "titre": "Highway to Hell",
        "annee": 1979,
        "pistes": [
          { "titre": "Highway to Hell", "duree": "03:26" },
          { "titre": "Girls Got Rhythm", "duree": "03:23" },
          { "titre": "Walk All Over You", "duree": "05:08" },
          { "titre": "Touch Too Much", "duree": "04:24" },
          { "titre": "Beating Around the Bush", "duree": "03:55" },
          { "titre": "Shot Down in Flames", "duree": "03:21" },
          { "titre": "Get It Hot", "duree": "02:34" },
          { "titre": "If You Want Blood (You ve Got It)", "duree": "04:32" },
          { "titre": "Love Hungry Man", "duree": "04:14" },
          { "titre": "Night Prowler", "duree": "06:13" }
        ]
      },
      {
        "titre": "Back in Black",
        "annee": 1980,
        "pistes": [
          { "titre": "Hells Bells", "duree": "05:12" },
          { "titre": "Shoot to Thrill", "duree": "05:17" },
          { "titre": "What Do You Do for Money Honey", "duree": "03:37" },
          { "titre": "Givin the Dog a Bone", "duree": "03:33" },
          { "titre": "Let Me Put My Love into You", "duree": "04:16" },
          { "titre": "Back in Black", "duree": "04:16" },
          { "titre": "You Shook Me All Night Long", "duree": "03:32" },
          { "titre": "Have a Drink on Me", "duree": "03:58" },
          { "titre": "Shake a Leg", "duree": "04:06" },
          { "titre": "Rock and Roll Ain t Noise Pollution", "duree": "04:16" }
        ]
      }
    ]
  },
  {
    "nom": "Mike Oldfield",
    "albums": [
      {
        "titre": "Tubular Bells",
        "annee": 1973,
        "pistes": [
          { "titre": "Tubular Bells, Part 1", "duree": "25:36" },
          { "titre": "Tubular Bells, Part 2", "duree": "23:20" }
        ]
      }
    ]
  }
]
